<svg width="149" height="36" viewBox="0 0 149 36" fill="none" xmlns="http://www.w3.org/2000/svg">
<path d="M0.421875 11.2695C0.1875 10.4492 0.0703125 9.46615 0.0703125 8.32031C0.0703125 5.83333 0.526042 3.86068 1.4375 2.40234C2.36198 0.93099 4.11979 0.195312 6.71094 0.195312C10.0443 0.195312 12.0104 1.79688 12.6094 5C12.8698 6.38021 13 8.11849 13 10.2148V12.2461H9.13281V9.94141C9.13281 7.75391 9.02214 6.28255 8.80078 5.52734C8.57943 4.77214 8.30599 4.27083 7.98047 4.02344C7.65495 3.77604 7.23177 3.65234 6.71094 3.65234C5.73438 3.65234 5.03125 4.01042 4.60156 4.72656C4.17188 5.44271 3.95703 6.50391 3.95703 7.91016C3.95703 9.31641 4.15234 10.3451 4.54297 10.9961C4.93359 11.6471 5.41536 12.2721 5.98828 12.8711C6.5612 13.457 6.88021 13.7891 6.94531 13.8672L9.28906 16.3477C12.1016 19.2904 13.5078 22.5846 13.5078 26.2305C13.5078 29.1992 13.0456 31.4714 12.1211 33.0469C11.2096 34.6094 9.46484 35.3906 6.88672 35.3906C3.77474 35.3906 1.80208 34.0234 0.96875 31.2891C0.486979 29.7526 0.246094 27.7409 0.246094 25.2539C0.246094 25.1888 0.246094 25.1237 0.246094 25.0586V21.7188H4.17188V25.2148C4.17188 27.7279 4.35417 29.4792 4.71875 30.4688C5.08333 31.4453 5.76042 31.9336 6.75 31.9336C7.73958 31.9336 8.42318 31.7057 8.80078 31.25C9.17839 30.7812 9.39323 30.0716 9.44531 29.1211C9.51042 28.1706 9.54297 27.1029 9.54297 25.918C9.54297 23.5352 8.49479 21.2956 6.39844 19.1992L4.15234 16.9531C2.14714 14.8958 0.903646 13.0013 0.421875 11.2695ZM18.1562 0.625H22.1992V35H18.1562V0.625ZM27.7656 10.3516C27.7656 5.29948 28.9635 2.16146 31.3594 0.9375C32.2969 0.46875 33.3255 0.227865 34.4453 0.214844C36.5417 0.214844 38.0586 0.664062 38.9961 1.5625C39.9336 2.44792 40.5391 3.6263 40.8125 5.09766C41.0859 6.55599 41.2227 8.33333 41.2227 10.4297V13.0859H37.3164V8.61328C37.3164 6.85547 37.1341 5.59896 36.7695 4.84375C36.418 4.08854 35.7148 3.71094 34.6602 3.71094C33.6185 3.71094 32.8828 4.1862 32.4531 5.13672C32.0234 6.08724 31.8086 7.76693 31.8086 10.1758V24.6289C31.8086 27.3763 31.9974 29.2904 32.375 30.3711C32.7526 31.4388 33.4948 31.9727 34.6016 31.9727C35.7214 31.9727 36.4831 31.4193 36.8867 30.3125C37.3034 29.2057 37.5117 27.2852 37.5117 24.5508V20.0781H34.7188V16.9531H41.2227V35H39.0938L38.5469 32.3438C37.7786 34.3359 36.3073 35.332 34.1328 35.332C31.9714 35.332 30.3698 34.4922 29.3281 32.8125C28.2865 31.1198 27.7656 28.4375 27.7656 24.7656V10.3516ZM57.1602 0.625H60.7344V35H57.7656L50.0508 11.4062L50.2852 20.0781V35H46.5547V0.625H49.6016L57.5703 24.0234L57.1602 14.082V0.625ZM70.0508 0.625H74.9141L80.5977 35H76.7891L75.8125 28.4375H69.582L68.6836 35H64.8359L70.0508 0.625ZM70.0312 25.1562H75.3047L72.5898 6.99219H72.5312L70.0312 25.1562ZM81.9062 0.625H93.2539V3.98438H89.7188V35H85.6953V3.98438H81.9062V0.625ZM105.988 0.625H110.012V26.1719C110.012 29.388 109.504 31.7318 108.488 33.2031C107.486 34.6745 105.741 35.4102 103.254 35.4102C100.767 35.4102 99.0091 34.6745 97.9805 33.2031C96.9518 31.7318 96.4375 29.388 96.4375 26.1719V0.625H100.48V26.0742C100.48 28.3659 100.572 29.7396 100.754 30.1953C100.949 30.638 101.151 30.9896 101.359 31.25C101.724 31.7448 102.355 31.9922 103.254 31.9922C104.152 31.9922 104.816 31.7188 105.246 31.1719C105.676 30.625 105.904 29.8112 105.93 28.7305C105.969 27.6497 105.988 26.7708 105.988 26.0938V0.625ZM115.461 0.625H122.668C124.712 0.625 126.184 1.04818 127.082 1.89453C127.98 2.74089 128.521 4.17969 128.703 6.21094C128.781 7.04427 128.82 8.34635 128.82 10.1172C128.82 11.875 128.586 13.3529 128.117 14.5508C127.661 15.7487 126.848 16.5234 125.676 16.875C126.535 17.0182 127.186 17.474 127.629 18.2422C128.072 18.9974 128.384 20.2083 128.566 21.875C128.749 23.5286 128.84 25.9961 128.84 29.2773C128.84 32.5456 128.944 34.4531 129.152 35H125.129C124.921 34.5833 124.816 30.7227 124.816 23.418C124.816 20.957 124.576 19.5312 124.094 19.1406C123.612 18.737 122.883 18.5352 121.906 18.5352L119.504 18.3984V35H115.461V0.625ZM124.816 9.04297C124.816 6.39974 124.576 4.86979 124.094 4.45312C123.625 4.03646 122.941 3.82812 122.043 3.82812H119.504V15.4297H122.082C122.863 15.4297 123.436 15.2799 123.801 14.9805C124.165 14.681 124.426 14.1081 124.582 13.2617C124.738 12.4154 124.816 11.0872 124.816 9.27734V9.04297ZM137.785 0.625H142.648L148.332 35H144.523L143.547 28.4375H137.316L136.418 35H132.57L137.785 0.625ZM137.766 25.1562H143.039L140.324 6.99219H140.266L137.766 25.1562Z" fill="black"/>
</svg>
