<svg xmlns="http://www.w3.org/2000/svg" width="17.727" height="10.072" viewBox="0 0 17.727 10.072">
  <path id="Path" d="M9,0,0,8.5,9,17" transform="translate(0.363 9.343) rotate(-90)" fill="none" stroke="#000" stroke-miterlimit="10" stroke-width="1"/>
</svg>
