<svg xmlns="http://www.w3.org/2000/svg" width="5.34" height="10.812" viewBox="0 0 5.34 10.812">
  <g id="Path_2" data-name="Path 2" transform="translate(-1220.492 -42.594)">
    <path id="Path_2-2" data-name="Path 2" d="M4,0,0,5l4,5" transform="translate(1225 53) rotate(-180)" fill="none"/>
    <path id="Path_2-3" data-name="Path 2" d="M4,0,0,5l4,5" transform="translate(1225 53) rotate(-180)" fill="none" stroke="#979797" stroke-miterlimit="10" stroke-width="1.3"/>
  </g>
</svg>
